Tidy Text
…
The bread and butter of Text Analysis is tokenizing a corpus. This is to get a dataframe such that each row is a unique token of the corpus. A token can be a single word, combination of words, or even a sentence. We will be focusing right now on a single word, also called unigram, for now.

tokens <- polyrating %>%
  unnest_tokens(word,review) %>%
  select(word,everything())

tokens %>%
  select(word, agg_rating, subject)

## # A tibble: 6,853,285 x 3
##    word        agg_rating subject
##    <chr>       <chr>      <chr>  
##  1 really      3.22/4.00  CHEM   
##  2 interesting 3.22/4.00  CHEM   
##  3 anytext     3.22/4.00  CHEM   
##  4 or          3.22/4.00  CHEM   
##  5 1           3.22/4.00  CHEM   
##  6 1           3.22/4.00  CHEM   
##  7 i           3.22/4.00  CHEM   
##  8 had         3.22/4.00  CHEM   
##  9 dr          3.22/4.00  CHEM   
## 10 abel        3.22/4.00  CHEM   
## # … with 6,853,275 more rows
…
review_words <- tokens %>%
  count(subject, word, sort = TRUE) %>%
  ungroup()

total_words <- review_words %>%
  group_by(subject) %>%
  summarize(total = sum(n))

review_words <- left_join(review_words, total_words)

review_words %>%
  mutate(freq = n/total)

## # A tibble: 242,452 x 5
##    subject word         n  total   freq
##    <chr>   <chr>    <int>  <int>  <dbl>
##  1 ENGL    class    10706 174657 0.0613
##  2 BUS     class     9307 165068 0.0564
##  3 MATH    class     9154 213750 0.0428
##  4 COMS    class     6559 116944 0.0561
##  5 PHYS    class     6487 144097 0.0450
##  6 CSC     class     5010 124839 0.0401
##  7 MATH    homework  4653 213750 0.0218
##  8 CHEM    class     4574 117749 0.0388
##  9 ECON    class     4398  74953 0.0587
## 10 BIO     class     4061  86433 0.0470
## # … with 242,442 more rows
…
Furthermore, using Bing again, let’s see what words contributed most to the Postive Sentiment and to the Negative Sentiment.

Let’s first get our token counts with the Bing lexicon joined.

bing_word_counts <- tokens %>%
  inner_join(get_sentiments("bing")) %>%
  count(word, sentiment, sort = TRUE) %>%
  ungroup()

bing_word_counts

## # A tibble: 3,965 x 3
##    word      sentiment     n
##    <chr>     <chr>     <int>
##  1 easy      positive  18087
##  2 hard      negative  15805
##  3 pretty    positive  12357
##  4 recommend positive   9490
##  5 nice      positive   8151
##  6 bad       negative   8061
##  7 difficult negative   7774
##  8 helpful   positive   7113
##  9 boring    negative   5460
## 10 fair      positive   5313
## # … with 3,955 more rows
…
\(tf_{i,j} =\) number of occurrenes of \(i\) in \(j\).

\(df_{i} =\) number of documents containing \(i\).

\(N =\) total number of documents

Tidytext makes it easy to get the TF-IDF for our tokens.

review_tf_words <- review_words %>%
  bind_tf_idf(word, subject, n)

review_tf_words %>%
  select(word, n, tf, idf, tf_idf)

## # A tibble: 242,452 x 5
##    word         n     tf    idf   tf_idf
##    <chr>    <int>  <dbl>  <dbl>    <dbl>
##  1 class    10706 0.0613 0      0       
##  2 class     9307 0.0564 0      0       
##  3 class     9154 0.0428 0      0       
##  4 class     6559 0.0561 0      0       
##  5 class     6487 0.0450 0      0       
##  6 class     5010 0.0401 0      0       
##  7 homework  4653 0.0218 0.0183 0.000399
##  8 class     4574 0.0388 0      0       
##  9 class     4398 0.0587 0      0       
## 10 class     4061 0.0470 0      0       
## # … with 242,442 more rows
…
Similarily to what we did with unigrams let’s look at the term frequencies of the PolyRating bigrams.

poly_bigrams %>%
  count(bigram, sort = TRUE)

## # A tibble: 797,705 x 2
##    bigram         n
##    <chr>      <int>
##  1 if you     38460
##  2 of the     28369
##  3 the class  26118
##  4 is a       23456
##  5 this class 23038
##  6 he is      20405
##  7 in the     19871
##  8 on the     17802
##  9 a lot      14958
## 10 for the    14000
## # … with 797,695 more rows
…
bigrams_filtered <- bigrams_separated %>%
  filter(!word1 %in% custom_stop_words$word) %>%
  filter(!word2 %in% custom_stop_words$word)

bigram_counts <- bigrams_filtered %>% 
  count(word1, word2, sort = TRUE)

bigrams_united <- bigrams_filtered %>%
  unite(bigram, word1, word2, sep = " ")

bigrams_united

## # A tibble: 765,220 x 12
##    bigram Evaluations agg_rating material_clearly prof_name
##    <chr>  <chr>       <chr>                 <dbl> <chr>    
##  1 livin… 1           0.00/4.00                 0 Ramirez,…
##  2 title… 1           0.00/4.00                 0 Ramirez,…
##  3 publi… 1           0.00/4.00                 0 Ramirez,…
##  4 grant… 1           0.00/4.00                 0 Ramirez,…
##  5 commu… 1           0.00/4.00                 0 Ramirez,…
##  6 encom… 1           0.00/4.00                 0 Ramirez,…
##  7 hell … 1           0.00/4.00                 0 Ramirez,…
##  8 she w… 1           0.00/4.00                 0 Ramirez,…
##  9 worst… 1           0.00/4.00                 0 Ramirez,…
## 10 diffi… 1           0.00/4.00                 0 Ramirez,…
## # … with 765,210 more rows, and 7 more variables:
## #   recognize_student_diff <dbl>, subject <chr>, class <chr>,
## #   standing <chr>, grade <chr>, reason <chr>, date <dttm>

We can do this for trigrams as well.

trigrams_filtered <- polyrating %>%
  unnest_tokens(trigram, review, token = "ngrams", n = 3) %>%
  separate(trigram, c("word1", "word2", "word3"), sep = " ") %>%
  filter(!word1 %in%  custom_stop_words$word,
         !word2 %in% custom_stop_words$word,
         !word3 %in% custom_stop_words$word) %>%
  select(word1,word2,word3,everything())

trigrams_filtered %>%
  select(word1, word2, word3, prof_name)

## # A tibble: 241,626 x 4
##    word1       word2      word3       prof_name         
##    <chr>       <chr>      <chr>       <chr>             
##  1 titled      public     health      Ramirez, Sarah    
##  2 hell        she        writes      Ramirez, Sarah    
##  3 context     whatsoever she         Ramirez, Sarah    
##  4 whatsoever  she        flies       Ramirez, Sarah    
##  5 poorly      written    tests       Ramirez, Sarah    
##  6 assignments she        teaches     Ramirez, Sarah    
##  7 bulky       readings   assignments Ramirez, Sarah    
##  8 excellent   fsn        department  Ramirez, Sarah    
##  9 blah        blah       blah        Potthast, Fredrick
## 10 blah        blah       he          Potthast, Fredrick
## # … with 241,616 more rows

We can even use TF-IDF on n-grams.

bigram_tf_idf <- bigrams_united %>%
  count(subject, bigram) %>%
  bind_tf_idf(bigram, subject, n) %>%
  arrange(desc(tf_idf))

bigram_tf_idf

## # A tibble: 398,270 x 6
##    subject bigram                    n     tf   idf tf_idf
##    <chr>   <chr>                 <int>  <dbl> <dbl>  <dbl>
##  1 PHIL    policies homework      2001 0.0644  2.62 0.169 
##  2 PHIL    teacher's grading      2001 0.0644  2.22 0.143 
##  3 PHIL    load tests             2000 0.0644  2.22 0.143 
##  4 MSC     5'4 36                    2 0.0117  4.01 0.0469
##  5 MSC     army values               2 0.0117  4.01 0.0469
##  6 MSC     famous shakespearean      2 0.0117  4.01 0.0469
##  7 MSC     fierce sfc                2 0.0117  4.01 0.0469
##  8 MSC     questions.his tests       2 0.0117  4.01 0.0469
##  9 MSC     shakespearean quote       2 0.0117  4.01 0.0469
## 10 MSC     student questions.his     2 0.0117  4.01 0.0469
## # … with 398,260 more rows
…
Negation

Let’s examine negation using AFINN and bigrams.

Let’s get AFINN.

AFINN <- get_sentiments("afinn")

AFINN

## # A tibble: 2,476 x 2
##    word       score
##    <chr>      <int>
##  1 abandon       -2
##  2 abandoned     -2
##  3 abandons      -2
##  4 abducted      -2
##  5 abduction     -2
##  6 abductions    -2
##  7 abhor         -3
##  8 abhorred      -3
##  9 abhorrent     -3
## 10 abhors        -3
## # … with 2,466 more rows

Now let’s get the “not” bigrams.

not_words <- bigrams_separated %>%
  filter(word1 == "not") %>%
  inner_join(AFINN, by = c(word2 = "word")) %>%
  count(word2, score, sort = TRUE) %>%
  ungroup()

not_words

## # A tibble: 398 x 3
##    word2     score     n
##    <chr>     <int> <int>
##  1 recommend     2   737
##  2 hard         -1   580
##  3 like          2   530
##  4 easy          1   426
##  5 bad          -3   407
##  6 worth         2   319
##  7 difficult    -1   275
##  8 help          2   243
##  9 helpful       2   218
## 10 good          3   202
## # … with 388 more rows
…
